Interactive Charts in Shiny
…
.column[.content[
# 
  * Seattle collision data from 2004 to present

```r
src = 'https://opendata.arcgis.com/datasets/5b5c745e0f1f48e7a53acec63a0022ab_0.csv'
x = readr::read_csv(src) %>%
  filter(INCDATE >= '2004-01-01', INCDATE <= '2019-10-31')
x
```

```
## # A tibble: 214,822 x 40
##        X     Y OBJECTID INCKEY COLDETKEY REPORTNO STATUS ADDRTYPE INTKEY
##    <dbl> <dbl>    <dbl>  <dbl>     <dbl> <chr>    <chr>  <chr>     <dbl>
##  1 -122.  47.7     1001   1313      1313 3501630  Match… Block        NA
##  2 -122.  47.6     1002   1312      1312 3476309  Match… Interse…  30138
##  3 -122.  47.6     1003   1311      1311 2606572  Match… Block        NA
##  4 -122.  47.6     1004  20500     20500 1788144  Match… Block        NA
##  5 -122.  47.7     1005   1310      1310 3507863  Match… Interse…  37116
##  6 -122.  47.7     1006  20400     20400 1220377  Match… Block        NA
##  7 -122.  47.6     1007  20300     20300 1069351  Match… Interse…  29121
##  8 -122.  47.6     1008  20200     20200 1214098  Match… Block        NA
##  9 -122.  47.7     1009   1309      1309 3507768  Match… Block        NA
## 10 -122.  47.6     1010   1246      1246 3643905  Match… Block        NA
## # … with 214,812 more rows, and 31 more variables: LOCATION <chr>,
## #   EXCEPTRSNCODE <chr>, EXCEPTRSNDESC <chr>, SEVERITYCODE <chr>,
## #   SEVERITYDESC <chr>, COLLISIONTYPE <chr>, PERSONCOUNT <dbl>,
## #   PEDCOUNT <dbl>, PEDCYLCOUNT <dbl>, VEHCOUNT <dbl>, INJURIES <dbl>,
## #   SERIOUSINJURIES <dbl>, FATALITIES <dbl>, INCDATE <dttm>,
## #   INCDTTM <chr>, JUNCTIONTYPE <chr>, SDOT_COLCODE <chr>,
## #   SDOT_COLDESC <chr>, INATTENTIONIND <chr>, UNDERINFL <chr>,
## #   WEATHER <chr>, ROADCOND <chr>, LIGHTCOND <chr>, PEDROWNOTGRNT <chr>,
## #   SDOTCOLNUM <chr>, SPEEDING <chr>, ST_COLCODE <dbl>, ST_COLDESC <chr>,
…
